\relax 
\@writefile{toc}{\contentsline {section}{\numberline {1}test affichage}{1}}
\@writefile{toc}{\contentsline {section}{\numberline {2}exercices}{1}}
\@writefile{toc}{\contentsline {section}{\numberline {3}solutions}{1}}
