\relax 
\@writefile{toc}{\contentsline {section}{\numberline {1}Documentation}{1}}
\@writefile{toc}{\contentsline {subsection}{\numberline {1.1}Examples}{1}}
\newlabel{tg}{{1.2}{2}}
\@writefile{toc}{\contentsline {subsection}{\numberline {1.2}Options}{3}}
\newlabel{sec:options}{{1.2}{3}}
\@writefile{toc}{\contentsline {subsection}{\numberline {1.3}Change log}{4}}
\@writefile{toc}{\contentsline {section}{\numberline {2}Implementation}{5}}
\@writefile{toc}{\contentsline {subsection}{\numberline {2.1}Formatting options}{5}}
\@writefile{toc}{\contentsline {subsection}{\numberline {2.2}Package options}{6}}
\@writefile{toc}{\contentsline {subsection}{\numberline {2.3}Formatting}{7}}
\@writefile{toc}{\contentsline {subsection}{\numberline {2.4}\LaTeX  \ interface}{9}}
\@writefile{toc}{\contentsline {subsubsection}{\numberline {2.4.1}Environnements}{9}}
\@writefile{toc}{\contentsline {subsubsection}{\numberline {2.4.2}\LaTeX  \ theorems}{10}}
\@writefile{toc}{\contentsline {subsection}{\numberline {2.5}Examples and proofs}{12}}
